{
  "implicitDependencies": {
    "package.json": {
      "dependencies": "*",
      "devDependencies": "*"
    },
    ".eslintrc.json": "*"
  },
  "affected": {
    "defaultBase": "master"
  },
  "npmScope": "e-shop",
  "tasksRunnerOptions": {
    "default": {
      "runner": "@nrwl/workspace/tasks-runners/default",
      "options": {
        "cacheableOperations": ["build", "lint", "test", "e2e"]
      }
    }
  },
  "projects": {
    "e-shop": {
      "tags": ["scope:client"]
    },
    "e-shop-e2e": {
      "tags": [],
      "implicitDependencies": ["e-shop"]
    },
    "toolbar": {
      "tags": ["scope:toolbar"]
    },
    "products": {
      "tags": ["scope:products"]
    },
    "tabs": {
      "tags": ["scope:tabs"]
    },
    "shopping-bag": {
      "tags": ["scope:shopping-bag"]
    },
    "payment": {
      "tags": ["scope:payment"]
    },
    "shipping": {
      "tags": ["scope:shipping"]
    },
    "store": {
      "tags": ["scope:store"]
    }
  }
}
